…
    ## Warning in rm(m1, m5, m5b, miss_mod, model5_usam): object 'model5_usam' not
    ## found

## Hvordan slår vi sammen flere datasett?

Når vi skal slå sammen ulike datasett må vi først tenke gjennom hvordan
vi kan få en felles nøkkel som lar oss knytte sammen informasjon om
observasjonene fra de to datasettene. Dette kan gjøres på flere nivåer.
Vi jobber videre med aid-datasettet.

``` r
aid
```

    ## # A tibble: 331 x 30
    ##    country period periodstart periodend code  gdp_growth gdp_pr_capita
    ##    <chr>    <dbl>       <dbl>     <dbl> <chr>      <dbl>         <dbl>
    ##  1 ARG          2        1970      1973 ARG2        1.70          5637
    ##  2 ARG          3        1974      1977 ARG3        1.08          6168
    ##  3 ARG          4        1978      1981 ARG4       -1.12          5849
    ##  4 ARG          5        1982      1985 ARG5       -2.55          5487
    ##  5 ARG          6        1986      1989 ARG6       -1.10          5624
    ##  6 ARG          7        1990      1993 ARG7        4.26          4706
    ##  7 BOL          2        1970      1973 BOL2        1.30          1661
    ##  8 BOL          3        1974      1977 BOL3        2.96          1838
    ##  9 BOL          4        1978      1981 BOL4       -1.49          2015
    ## 10 BOL          5        1982      1985 BOL5       -4.32          1864
    ## # ... with 321 more rows, and 23 more variables: economic_open <dbl>,
    ## #   budget_balance <dbl>, inflation <dbl>, ethnic_frac <dbl>,
    ## #   assasinations <dbl>, aid <dbl>, fast_growing_east_asia <dbl>,
    ## #   sub_saharan_africa <dbl>, central_america <dbl>, policy <dbl>,
    ## #   m2_gdp_lagged <dbl>, institutional_quality <dbl>, log_gdp_pr_capita <dbl>,
    ## #   period_fac <fct>, region <fct>, reg_miss <lgl>, period2 <dbl>,
    ## #   period3 <dbl>, period4 <dbl>, period5 <dbl>, period6 <dbl>, period7 <dbl>,
    ## #   period8 <dbl>
…
``` r
summary(equality$v2pepwrsoc)
```

    ##    Min. 1st Qu.  Median    Mean 3rd Qu.    Max. 
    ## -2.9150 -0.6210  0.2460  0.3182  1.2780  3.2060

``` r
equality
```

    ## # A tibble: 5,163 x 5
    ##    country_name country_text_id country_id  year v2pepwrsoc
    ##    <chr>        <chr>                <dbl> <dbl>      <dbl>
    ##  1 Mexico       MEX                      3  1966     -0.028
    ##  2 Mexico       MEX                      3  1967     -0.028
    ##  3 Mexico       MEX                      3  1968     -0.028
    ##  4 Mexico       MEX                      3  1969     -0.028
    ##  5 Mexico       MEX                      3  1970     -0.028
    ##  6 Mexico       MEX                      3  1971     -0.028
    ##  7 Mexico       MEX                      3  1972     -0.028
    ##  8 Mexico       MEX                      3  1973     -0.028
    ##  9 Mexico       MEX                      3  1974     -0.028
    ## 10 Mexico       MEX                      3  1975     -0.028
    ## # ... with 5,153 more rows
…
``` r
agg_equality
```

    ## # A tibble: 1,297 x 4
    ## # Groups:   country_text_id [179]
    ##    country_text_id period avg_eq period_num
    ##    <chr>            <dbl>  <dbl>      <dbl>
    ##  1 AFG                  1  1.02           1
    ##  2 AFG                  2  1.02           2
    ##  3 AFG                  3  1.01           3
    ##  4 AFG                  4  0.845          4
    ##  5 AFG                  5  0.845          5
    ##  6 AFG                  6  0.845          6
    ##  7 AFG                  7  0.587          7
    ##  8 AFG                  8 -0.133          8
    ##  9 AGO                  1 -2.52           1
    ## 10 AGO                  2 -2.52           2
    ## # ... with 1,287 more rows
…
