…
```r
agg_full
```

```
## # A tibble: 32 x 7
## # Groups:   regions [?]
##    regions         period med_growth var_growth mean_aid var_aid med_policy
##    <chr>            <dbl>      <dbl>      <dbl>    <dbl>   <dbl>      <dbl>
##  1 Central America      1     NA         NA      NaN     NA          NA    
##  2 Central America      2      2.22       3.66     0.465  0.0270      1.07 
##  3 Central America      3      2.49       0.390    0.505  0.104       1.03 
##  4 Central America      4     -0.637     24.9      1.01   0.532       0.846
##  5 Central America      5     -1.94       1.49     2.38   1.48        0.783
##  6 Central America      6      0.340      1.14     2.43   1.79        1.75 
##  7 Central America      7      1.76       1.83     1.99   1.77        3.09 
##  8 Central America      8     NA         NA      NaN     NA          NA    
##  9 East Asia            1     NA         NA      NaN     NA          NA    
## 10 East Asia            2      4.57       3.34     0.488  0.0669      3.09 
## # ... with 22 more rows
```
…
