…
```
## See spec(...) for full column specifications.
```

```r
conflict
```

```
## # A tibble: 2,384 x 28
##    conflict_id location side_a side_a_id side_a_2nd side_b side_b_id
##          <dbl> <chr>    <chr>  <chr>     <chr>      <chr>  <chr>    
##  1       13637 Afghani~ Gover~ 130       Governmen~ IS     234      
##  2       13637 Afghani~ Gover~ 130       Governmen~ IS     234      
##  3       13637 Afghani~ Gover~ 130       Governmen~ IS     234      
##  4       13637 Afghani~ Gover~ 130       Governmen~ IS     234      
##  5         333 Afghani~ Gover~ 130       <NA>       PDPA   291      
##  6         333 Afghani~ Gover~ 130       <NA>       Jam'i~ 292      
##  7         333 Afghani~ Gover~ 130       Governmen~ Harak~ 293, 299~
##  8         333 Afghani~ Gover~ 130       Governmen~ Harak~ 293, 299~
##  9         333 Afghani~ Gover~ 130       Governmen~ Harak~ 293, 299~
## 10         333 Afghani~ Gover~ 130       Governmen~ Harak~ 293, 299~
## # ... with 2,374 more rows, and 21 more variables: side_b_2nd <chr>,
## #   incompatibility <dbl>, territory_name <chr>, year <dbl>,
## #   intensity_level <dbl>, cumulative_intensity <dbl>,
## #   type_of_conflict <dbl>, start_date <date>, start_prec <dbl>,
## #   start_date2 <date>, start_prec2 <dbl>, ep_end <dbl>,
## #   ep_end_date <date>, ep_end_prec <lgl>, gwno_a <chr>, gwno_a_2nd <chr>,
## #   gwno_b <chr>, gwno_b_2nd <chr>, gwno_loc <chr>, region <chr>,
## #   version <dbl>
```
…
