…
```
## 
## FALSE  TRUE 
##   991   369
```

```r
aid %>%
complete(country, period) # Tester alle mulige teoretiske kombinasjoner av verdier for variablene vi setter inn - ta utgangspunkt i variabler som definerer forskjellen på observasjonene. Dersom vi for eksempel har spurt et panel av førstegangsvelgere hva de har tenkt å stemme i mange runder, skiller vi med utgangspunkt i individ og spørsmålsrunde.
```

```
## # A tibble: 1,360 x 52
##    country period periodstart periodend code  bdgdpg elrgdpg bdgdp elrgdp
##    <chr>    <dbl>       <dbl>     <dbl> <chr>  <dbl>   <dbl> <dbl>  <dbl>
##  1 AFG          1        1966      1969 AFG1      NA -0.0131    NA     NA
##  2 AFG          2        1970      1973 AFG2      NA -0.550     NA     NA
##  3 AFG          3        1974      1977 AFG3      NA  2.24      NA     NA
##  4 AFG          4        1978      1981 AFG4      NA -1.09      NA     NA
##  5 AFG          5        1982      1985 AFG5      NA  0.804     NA     NA
##  6 AFG          6        1986      1989 AFG6      NA NA         NA     NA
##  7 AFG          7        1990      1993 AFG7      NA NA         NA     NA
##  8 AFG          8        1994      1997 AFG8      NA NA         NA     NA
##  9 AGO          1        1966      1969 AGO1      NA NA       1066   1066
## 10 AGO          2        1970      1973 AGO2      NA NA       1165   1165
## # ... with 1,350 more rows, and 43 more variables: bdbb <dbl>,
## #   elrbb <dbl>, bdinfl <dbl>, elrinfl <dbl>, bdsacw <dbl>, elrsacw <dbl>,
## #   bdethnf <dbl>, elrethnf <dbl>, bdassas <dbl>, elrassas <dbl>,
## #   bdicrge <dbl>, elricrge <dbl>, bdm21 <dbl>, elrm21 <dbl>, bdssa <dbl>,
## #   elrssa <dbl>, bddn1900 <dbl>, elrdn1900 <dbl>, bdaid <dbl>,
## #   elraid <dbl>, bdlpop <dbl>, elrlpop <dbl>, bdeasia <dbl>,
## #   elreasia <dbl>, bdegypt <dbl>, elregypt <dbl>, bdcentam <dbl>,
## #   elrcentam <dbl>, bdfrz <dbl>, elrfrz <dbl>, bdarms1 <dbl>,
## #   elrarms1 <dbl>, originalcountries <dbl>, bddatap <dbl>, bddatao <dbl>,
…
```r
# oppretter policy-indeks variabel
aid$policy <- aid$elrinfl + aid$elrbb + aid$elrsacw
```

I `tidyverse` og `dplyr` pakken bruker man som regel `mutate()` funksjonen sammen med andre funksjoner for å opprette nye variabler. Ved hjelp av `mutate()` kan du gjøre mange omkodinger i slengen - dette gir mer ryddig kode.


```r
aid %>% # Spesifiserer at vi skal jobbe med datasettet aid - R vil da lete etter variabler vi referer til her, slik at vi slipper aid$var
  mutate(policy = elrsacw + elrinfl + elrbb) # lager variabelen policy ved å summere budsjettbalanse, inflasjon og en indeks for øk. åpenhet
```

```
## # A tibble: 1,360 x 53
##    country period periodstart periodend code  bdgdpg elrgdpg bdgdp elrgdp
##    <chr>    <dbl>       <dbl>     <dbl> <chr>  <dbl>   <dbl> <dbl>  <dbl>
##  1 AFG          1        1966      1969 AFG1      NA -0.0131    NA     NA
##  2 AFG          2        1970      1973 AFG2      NA -0.550     NA     NA
##  3 AFG          3        1974      1977 AFG3      NA  2.24      NA     NA
##  4 AFG          4        1978      1981 AFG4      NA -1.09      NA     NA
##  5 AFG          5        1982      1985 AFG5      NA  0.804     NA     NA
##  6 AFG          6        1986      1989 AFG6      NA NA         NA     NA
##  7 AFG          7        1990      1993 AFG7      NA NA         NA     NA
##  8 AFG          8        1994      1997 AFG8      NA NA         NA     NA
##  9 AGO          1        1966      1969 AGO1      NA NA       1066   1066
## 10 AGO          2        1970      1973 AGO2      NA NA       1165   1165
## # ... with 1,350 more rows, and 44 more variables: bdbb <dbl>,
## #   elrbb <dbl>, bdinfl <dbl>, elrinfl <dbl>, bdsacw <dbl>, elrsacw <dbl>,
## #   bdethnf <dbl>, elrethnf <dbl>, bdassas <dbl>, elrassas <dbl>,
## #   bdicrge <dbl>, elricrge <dbl>, bdm21 <dbl>, elrm21 <dbl>, bdssa <dbl>,
## #   elrssa <dbl>, bddn1900 <dbl>, elrdn1900 <dbl>, bdaid <dbl>,
## #   elraid <dbl>, bdlpop <dbl>, elrlpop <dbl>, bdeasia <dbl>,
## #   elreasia <dbl>, bdegypt <dbl>, elregypt <dbl>, bdcentam <dbl>,
## #   elrcentam <dbl>, bdfrz <dbl>, elrfrz <dbl>, bdarms1 <dbl>,
## #   elrarms1 <dbl>, originalcountries <dbl>, bddatap <dbl>, bddatao <dbl>,
…
```r
cor(aid$elrgdpg, aid$elraid, use = "pairwise.complete.obs") # argumentet use bestemmer missing-håndtering
```

```
## [1] -0.09172658
```

```r
aid         # sjekker hvilke variabler som er numeriske, str(aid hvis du ikke har en tibble)
```

```
## # A tibble: 1,360 x 57
##    country period periodstart periodend code  bdgdpg elrgdpg bdgdp elrgdp
##    <chr>    <dbl>       <dbl>     <dbl> <chr>  <dbl>   <dbl> <dbl>  <dbl>
##  1 AFG          1        1966      1969 AFG1      NA -0.0131    NA     NA
##  2 AFG          2        1970      1973 AFG2      NA -0.550     NA     NA
##  3 AFG          3        1974      1977 AFG3      NA  2.24      NA     NA
##  4 AFG          4        1978      1981 AFG4      NA -1.09      NA     NA
##  5 AFG          5        1982      1985 AFG5      NA  0.804     NA     NA
##  6 AFG          6        1986      1989 AFG6      NA NA         NA     NA
##  7 AFG          7        1990      1993 AFG7      NA NA         NA     NA
##  8 AFG          8        1994      1997 AFG8      NA NA         NA     NA
##  9 AGO          1        1966      1969 AGO1      NA NA       1066   1066
## 10 AGO          2        1970      1973 AGO2      NA NA       1165   1165
## # ... with 1,350 more rows, and 48 more variables: bdbb <dbl>,
## #   elrbb <dbl>, bdinfl <dbl>, elrinfl <dbl>, bdsacw <dbl>, elrsacw <dbl>,
## #   bdethnf <dbl>, elrethnf <dbl>, bdassas <dbl>, elrassas <dbl>,
## #   bdicrge <dbl>, elricrge <dbl>, bdm21 <dbl>, elrm21 <dbl>, bdssa <dbl>,
## #   elrssa <dbl>, bddn1900 <dbl>, elrdn1900 <dbl>, bdaid <dbl>,
## #   elraid <dbl>, bdlpop <dbl>, elrlpop <dbl>, bdeasia <dbl>,
## #   elreasia <dbl>, bdegypt <dbl>, elregypt <dbl>, bdcentam <dbl>,
## #   elrcentam <dbl>, bdfrz <dbl>, elrfrz <dbl>, bdarms1 <dbl>,
## #   elrarms1 <dbl>, originalcountries <dbl>, bddatap <dbl>, bddatao <dbl>,
…
